…
Part 4 - Analyzing the results of statistical tests
===================================================

Being able to graph these results is useful, but what we really want to do run statistical tests on the data. There are a variety of ways to do that which will be explored in subsequent lectures. But in this seminar we will focus on doing this using dplyr.

In this case, we want to identify the genes that are differentially expressed between the normal and RCC samples. We will use summarize() to perform a t-test for each gene.

``` r
full_data %>% 
    group_by(hgnc_symbol) %>% 
    summarize( pvalue = t.test(Count ~ disease)$p.value)
```

    ## # A tibble: 9,471 x 2
    ##    hgnc_symbol     pvalue
    ##          <chr>      <dbl>
    ##  1        A1BG 0.70829707
    ##  2    A1BG-AS1 0.03655069
    ##  3        A1CF 0.13165302
    ##  4       A2MP1 0.02449191
    ##  5     AADACL2 0.14311907
    ##  6       AADAT 0.03038926
    ##  7       AAED1 0.03665928
    ##  8       AAGAB 0.46913615
    ##  9        AAK1 0.02289984
    ## 10       AARS2 0.04160953
    ## # ... with 9,461 more rows
…
