…
set.seed(123)
positiveGeneRanks <- c(sample(1:10, 8, replace = FALSE), 
                       sample(15:25, 4, replace = FALSE))
negativeGeneRanks <- 1:26 %>% setdiff(positiveGeneRanks)

(rankedGeneList <- tibble(gene = c(fictionalGeneSet, negativeGenes),
                    rank = c(positiveGeneRanks, negativeGeneRanks)) %>% 
  arrange(rank))
```

    ## # A tibble: 26 x 2
    ##    gene    rank
    ##    <chr>  <int>
    ##  1 gene_g     1
    ##  2 gene_c     2
    ##  3 gene_a     3
    ##  4 gene_m     4
    ##  5 gene_n     5
    ##  6 gene_e     6
    ##  7 gene_h     7
    ##  8 gene_d     8
    ##  9 gene_f     9
    ## 10 gene_b    10
    ## # … with 16 more rows
…
Let’s import this dataset and take a look inside:

``` r
(geneList <- read_csv("data/ranked_gene_list.csv"))
```

    ## 
    ## ── Column specification ────────────────────────────────────────────────────────
    ## cols(
    ##   gene = col_character(),
    ##   logFC = col_double()
    ## )

    ## # A tibble: 17,421 x 2
    ##    gene       logFC
    ##    <chr>      <dbl>
    ##  1 A1BG     -4.57  
    ##  2 A1BG-AS1  0.190 
    ##  3 A1CF     -3.15  
    ##  4 A2M      -1.08  
    ##  5 A2M-AS1   0.760 
    ##  6 A4GALT   -0.131 
    ##  7 A4GNT     0.169 
    ##  8 AA06      0.0212
    ##  9 AAAS     -0.192 
    ## 10 AACS      0.345 
    ## # … with 17,411 more rows
…
Let’s first import the multifunctionality scores dataset.

``` r
(mfScores <- read_csv("data/gene_multifunctionality_scores.csv"))
```

    ## 
    ## ── Column specification ────────────────────────────────────────────────────────
    ## cols(
    ##   gene = col_character(),
    ##   MF.score = col_double()
    ## )

    ## # A tibble: 18,402 x 2
    ##    gene     MF.score
    ##    <chr>       <dbl>
    ##  1 MEF2C   0.000762 
    ##  2 MEF2A   0.000729 
    ##  3 OPA1    0.0000886
    ##  4 SLC25A4 0.000116 
    ##  5 TYMP    0.000159 
    ##  6 LONP1   0.000357 
    ##  7 MPV17   0.0000162
    ##  8 MGME1   0.0000578
    ##  9 PIF1    0.000347 
    ## 10 MRPL17  0.0000136
    ## # … with 18,392 more rows

The dataset has two columns: 1. gene, and 2. a multifunctional score for
each gene.

Now let’s see if our geneList has some multifunctional bias.

``` r
(mergedData <- geneList %>% inner_join(mfScores, by = "gene"))
```

    ## # A tibble: 14,104 x 3
    ##    gene    logFC    MF.score
    ##    <chr>   <dbl>       <dbl>
    ##  1 A1BG   -4.57  0.000000799
    ##  2 A1CF   -3.15  0.0000626  
    ##  3 A2M    -1.08  0.000175   
    ##  4 A4GALT -0.131 0.000162   
    ##  5 A4GNT   0.169 0.00000587 
    ##  6 AAAS   -0.192 0.0000200  
    ##  7 AACS    0.345 0.000148   
    ##  8 AADAC  -2.24  0.0000320  
    ##  9 AADAT  -2.06  0.000244   
    ## 10 AAGAB   0.313 0.000000671
    ## # … with 14,094 more rows
…
